<?xml version="1.0" encoding="utf-8"?>
<!-- Generator: Adobe Illustrator 19.0.0, SVG Export Plug-In . SVG Version: 6.00 Build 0)  -->
<svg version="1.1" id="Layer_1" xmlns="http://www.w3.org/2000/svg" xmlns:xlink="http://www.w3.org/1999/xlink" x="0px" y="0px"
	 viewBox="0 0 107.9 63.5" style="enable-background:new 0 0 107.9 63.5;" xml:space="preserve">
<style type="text/css">
	.st0{clip-path:url(#SVGID_1_);}
	.st1{clip-path:url(#SVGID_1_);fill:#E60005;}
	.st2{clip-path:url(#SVGID_1_);fill:#FFFFFF;}
	.st3{clip-path:url(#SVGID_1_);fill:#D3D7DB;}
	.st4{clip-path:url(#SVGID_1_);fill:none;stroke:#000000;stroke-width:0.41;}
</style>
<g>
	<defs>
		<rect id="SVGID_3_" x="0" width="107.7" height="54.1"/>
	</defs>
	<clipPath id="SVGID_1_">
		<use xlink:href="#SVGID_3_"  style="overflow:visible;"/>
	</clipPath>
	<path class="st0" d="M106.2,15.3c-0.3,0-0.6-0.3-0.6-0.7c0-0.4,0.3-0.7,0.6-0.7c0.3,0,0.6,0.3,0.6,0.7
		C106.8,15,106.5,15.3,106.2,15.3 M106.2,15.5c0.4,0,0.8-0.4,0.8-0.8c0-0.5-0.4-0.8-0.8-0.8c-0.5,0-0.8,0.4-0.8,0.8
		C105.4,15.1,105.7,15.5,106.2,15.5 M105.9,15.1h0.2v-0.4h0.1l0.2,0.4h0.2l-0.2-0.4c0.2,0,0.2-0.1,0.2-0.2c0-0.2-0.1-0.3-0.3-0.3
		h-0.3V15.1z M106,14.3h0.2c0.1,0,0.2,0,0.2,0.1c0,0.1-0.1,0.1-0.2,0.1H106V14.3z"/>
	<rect x="49" y="0.3" class="st1" width="9.4" height="9.1"/>
	<rect x="49.3" y="0.7" class="st2" width="8.7" height="8.4"/>
	<rect x="55" y="6.2" class="st1" width="2.7" height="2.6"/>
	<rect x="55" y="1" class="st1" width="2.7" height="2.6"/>
	<rect x="49.7" y="6.2" class="st1" width="2.7" height="2.6"/>
	<rect x="49.7" y="1" class="st1" width="2.7" height="2.6"/>
	<rect x="52.3" y="3.6" class="st1" width="2.7" height="2.6"/>
	<polygon class="st0" points="103.2,9.4 58.7,9.5 58.7,0.3 103.2,0.3 	"/>
	<path class="st2" d="M63.9,2.1c-0.3-0.1-0.7-0.2-1.3-0.2h-2.1h-0.1V2v0.2v0.1h0.1h0.2c0.2,0,0.3,0.1,0.4,0.2c0,0,0.1,0.2,0.1,0.6
		v3.8c0,0.4,0,0.6-0.1,0.6c-0.1,0.1-0.2,0.2-0.5,0.2h-0.2h-0.1v0.1v0.2V8h0.1H63h0.1V7.9V7.8V7.7H63h-0.2c-0.2,0-0.3-0.1-0.4-0.2
		c0,0-0.1-0.2-0.1-0.6V5.3c0.1,0,0.3,0.1,0.4,0.1c0.2,0,0.3,0,0.5,0c0.6,0,1.1-0.2,1.4-0.5c0.3-0.3,0.5-0.7,0.5-1.2
		c0-0.4-0.1-0.7-0.3-1C64.5,2.4,64.3,2.2,63.9,2.1 M62.3,2.5c0.2,0,0.4-0.1,0.5-0.1c0.2,0,0.4,0.1,0.6,0.2c0.2,0.1,0.3,0.3,0.4,0.5
		c0.1,0.2,0.1,0.4,0.1,0.7c0,0.3-0.1,0.6-0.3,0.9c-0.2,0.2-0.4,0.3-0.7,0.3c-0.1,0-0.2,0-0.3,0c-0.1,0-0.2,0-0.3-0.1V2.5z"/>
	<path class="st2" d="M70.9,1.9L70.9,1.9L70.9,1.9l-0.1,0.2v0.1h0.1h0.2c0.2,0,0.3,0.1,0.4,0.2c0,0,0.1,0.2,0.1,0.6v2.4
		c0,0.6-0.1,1.1-0.2,1.3c-0.1,0.2-0.3,0.4-0.6,0.6c-0.3,0.2-0.6,0.2-1,0.2c-0.3,0-0.5-0.1-0.7-0.2C69,7.3,68.8,7.2,68.7,7
		c-0.1-0.2-0.2-0.4-0.2-0.7c0-0.3-0.1-0.5-0.1-0.8V3c0-0.4,0-0.5,0.1-0.6c0.1-0.1,0.2-0.2,0.4-0.2h0.2h0.1V2.1V2V1.9h-0.1h-2.5h-0.1
		V2v0.2v0.1h0.1h0.2c0.2,0,0.3,0,0.4,0.1c0.1,0.1,0.1,0.2,0.1,0.7v2.3c0,0.7,0,1.2,0.1,1.5c0.1,0.4,0.4,0.7,0.7,0.9
		c0.3,0.2,0.9,0.3,1.5,0.3c0.6,0,1.1-0.1,1.5-0.4c0.4-0.2,0.6-0.5,0.7-0.9c0.1-0.3,0.2-0.8,0.2-1.4V3.1c0-0.4,0-0.5,0.1-0.6
		c0.1-0.2,0.3-0.3,0.5-0.3h0.2H73V2.1V2V1.9h-0.1H70.9z"/>
	<path class="st2" d="M80.1,7.4c-0.2-0.1-0.4-0.4-0.7-0.8c0,0-0.9-1.2-1.1-1.6c0.4-0.1,0.8-0.3,1-0.6c0.3-0.3,0.4-0.6,0.4-1
		c0-0.4-0.1-0.7-0.3-0.9c-0.2-0.3-0.5-0.4-0.8-0.5c-0.3-0.1-0.8-0.1-1.4-0.1H75h-0.1V2v0.2v0.1H75h0.2c0.2,0,0.3,0.1,0.4,0.2
		c0,0,0.1,0.2,0.1,0.6v3.8c0,0.4,0,0.6-0.1,0.6c-0.1,0.1-0.2,0.2-0.5,0.2H75h-0.1v0.1v0.2V8H75h2.5h0.1V7.9V7.8V7.7h-0.1h-0.2
		c-0.2,0-0.3-0.1-0.4-0.2c0,0-0.1-0.2-0.1-0.6V5.2c0,0,0,0,0,0c0,0,0.1,0,0.1,0c0.1,0,0.2,0,0.3,0l2,2.7l0,0h0h1.6h0.1V7.9V7.8V7.7
		l-0.1,0C80.6,7.6,80.3,7.6,80.1,7.4 M76.7,2.5c0.2,0,0.4-0.1,0.6-0.1c0.3,0,0.6,0.1,0.8,0.3c0.2,0.2,0.3,0.5,0.3,0.8
		c0,0.4-0.1,0.6-0.4,0.9c-0.3,0.2-0.7,0.3-1.2,0.3c0,0,0,0-0.1,0c0,0,0,0-0.1,0V2.5z"/>
	<path class="st2" d="M82.7,1.9L82.7,1.9L82.7,1.9l-0.1,0.2v0.1h0.1H83c0.1,0,0.2,0,0.4,0.1c0.1,0,0.1,0.1,0.1,0.1
		c0,0.1,0.1,0.2,0.1,0.6v3.8c0,0.4-0.1,0.6-0.1,0.6c-0.1,0.1-0.2,0.2-0.5,0.2h-0.2h-0.1v0.1v0.2V8h0.1h2.5h0.1V7.9V7.8V7.7h-0.1
		h-0.2c-0.1,0-0.2,0-0.3-0.1c-0.1,0-0.1-0.1-0.1-0.1c0-0.1-0.1-0.2-0.1-0.6V3.1c0-0.4,0.1-0.6,0.1-0.6c0.1-0.1,0.2-0.2,0.5-0.2h0.2
		h0.1V2.2V2V1.9h-0.1H82.7z"/>
	<path class="st2" d="M94.2,2.2V2V1.9h-0.1H92h-0.1V2v0.2v0.1H92h0.2c0.2,0,0.4,0.1,0.4,0.2c0,0,0.1,0.2,0.1,0.6v3.2L89.3,2l0,0h0
		h-1.6h-0.1V2v0.2v0.1h0.1c0.2,0,0.3,0,0.4,0c0.2,0.1,0.3,0.1,0.4,0.2c0.1,0.1,0.2,0.2,0.4,0.4v4.1c0,0.4-0.1,0.5-0.1,0.6
		c-0.1,0.1-0.2,0.2-0.5,0.2h-0.2h-0.1v0.1v0.2V8h0.1H90h0.1V7.9V7.8V7.7H90h-0.2c-0.2,0-0.4-0.1-0.4-0.2c0,0-0.1-0.2-0.1-0.6V3.5
		L93,8.1l0,0h0h0.2h0.1V8V3c0-0.4,0.1-0.5,0.1-0.6c0.1-0.1,0.2-0.2,0.5-0.2L94.2,2.2L94.2,2.2L94.2,2.2z"/>
	<path class="st2" d="M101.5,7.7c-0.2,0-0.4-0.1-0.5-0.2c-0.1-0.1-0.3-0.4-0.4-0.7c0,0-2-4.9-2-4.9l0-0.1h-0.1h-0.2h-0.1l0,0.1
		l-2.1,4.8c-0.2,0.4-0.3,0.7-0.5,0.8c0,0-0.1,0.1-0.4,0.2l-0.1,0v0.1v0.2V8h0.1H97h0.1V7.9V7.8V7.7l-0.1,0c-0.3,0-0.5-0.1-0.5-0.1
		c-0.1-0.1-0.1-0.1-0.1-0.2c0-0.1,0-0.2,0.1-0.5c0,0,0.3-0.7,0.4-0.9h2.2c0.1,0.2,0.3,0.8,0.3,0.8c0.1,0.3,0.2,0.5,0.2,0.6
		c0,0.1,0,0.1-0.1,0.2c0,0-0.2,0.1-0.4,0.1l-0.1,0v0.1v0.2V8h0.1h2.3h0.1V7.9L101.5,7.7L101.5,7.7L101.5,7.7z M98.1,3.5l0.9,2.1
		h-1.8L98.1,3.5z"/>
	<path class="st3" d="M21.7,9.7C9,9.7,0,19.8,0,32.6c0,11.6,8.3,21.5,20.3,21.5C33,54.1,42,43.9,42,31.2C42,19.5,33.7,9.7,21.7,9.7
		 M21.5,51.6c-10,0-18-8.5-18-20.3c0-13.1,7.9-19.1,17-19.1c10,0,18,8.4,18,20.4C38.5,45.6,30.6,51.6,21.5,51.6 M75.3,19.6v26.9
		L47.9,14.6h-7c3.7,1.7,5.3,3.1,7,5.4v28.1c0,3.7-0.5,3.8-1.5,5h5c-1-1.2-1.5-1.3-1.5-5V22.3L77.3,54V19.6c0-3.7,0.5-3.8,1.5-5h-5
		C74.8,15.8,75.3,15.9,75.3,19.6 M94.6,51.4c-5.5,0-5.9-1.9-5.9-6.2V32.6h9.4c2.8,0,3,0.3,4.5,1.7v-5.1c-1.5,1.4-2.1,1.7-4.3,1.7
		h-9.6V16.3h6.2c6.2,0,6.4,0.9,8.1,3.7v-5.4H82.5c2.8,1.8,2.8,3.5,2.8,6.4v25.7c0,2.9,0,4.5-2.8,6.4h22l2.7-7.7
		C105.7,46.9,103.5,51.4,94.6,51.4"/>
	<path class="st0" d="M22.2,9C9.5,9,0.5,19.1,0.5,31.9c0,11.6,8.3,21.5,20.3,21.5c12.7,0,21.7-10.2,21.7-22.9
		C42.4,18.8,34.2,9,22.2,9 M21.9,50.9c-10,0-18-8.5-18-20.3c0-13.1,7.9-19.1,17-19.1c10,0,18,8.4,18,20.4C39,44.9,31,50.9,21.9,50.9
		 M75.8,19v26.9L48.3,13.9h-7c3.7,1.7,5.3,3.1,7,5.4v28.1c0,3.7-0.4,3.8-1.5,5h5c-1-1.2-1.5-1.3-1.5-5V21.6l27.4,31.7V19
		c0-3.7,0.5-3.8,1.5-5h-5C75.3,15.1,75.8,15.2,75.8,19 M95.1,50.8c-5.5,0-5.9-1.9-5.9-6.2V31.9h9.4c2.9,0,3,0.3,4.5,1.7v-5.1
		c-1.6,1.4-2.1,1.7-4.3,1.7h-9.6V15.6h6.2c6.2,0,6.4,0.9,8.1,3.7v-5.4H82.9c2.8,1.8,2.8,3.5,2.8,6.4v25.7c0,2.9,0,4.5-2.8,6.4h22
		l2.7-7.7C106.1,46.2,104,50.8,95.1,50.8"/>
	<line class="st4" x1="1.3" y1="63.3" x2="107.7" y2="63.3"/>
	<path class="st0" d="M1.2,56.4c0.1,0,0.2,0,0.3,0c0.1,0,0.2,0,0.3,0c0.4,1.1,0.9,2.5,1.4,3.8c0.5-1,1.2-2.9,1.4-3.8
		c0.1,0,0.2,0,0.2,0c0.1,0,0.2,0,0.2,0c-0.7,1.5-1.3,2.9-1.8,4.4c-0.1,0-0.1,0-0.2,0c-0.1,0-0.2,0-0.2,0C2.6,59.7,1.9,57.9,1.2,56.4
		"/>
	<path class="st0" d="M6,58.9c0-0.4,0-0.8-0.1-1.2c0.1,0,0.2,0,0.3,0c0.1,0,0.2,0,0.3,0c0,0.4-0.1,0.8-0.1,1.2v0.7
		c0,0.4,0,0.8,0.1,1.2c-0.1,0-0.2,0-0.3,0c-0.1,0-0.2,0-0.3,0C6,60.4,6,60,6,59.6V58.9z M6.2,56.3c0.2,0,0.3,0.1,0.3,0.3
		c0,0.2-0.1,0.3-0.3,0.3c-0.2,0-0.3-0.1-0.3-0.3C5.9,56.5,6,56.3,6.2,56.3"/>
	<path class="st0" d="M7.7,60.2c0.1,0.2,0.4,0.4,0.7,0.4c0.3,0,0.6-0.2,0.6-0.6c0-0.8-1.5-0.3-1.5-1.4c0-0.6,0.4-1,1.1-1
		c0.3,0,0.5,0.1,0.7,0.2c-0.1,0.1-0.1,0.4-0.2,0.5H9.1c-0.1-0.2-0.3-0.4-0.6-0.4c-0.2,0-0.5,0.2-0.5,0.5c0,0.8,1.5,0.3,1.5,1.4
		c0,0.5-0.4,1-1.1,1c-0.4,0-0.6-0.1-0.8-0.2C7.6,60.5,7.6,60.3,7.7,60.2L7.7,60.2z"/>
	<path class="st0" d="M10.6,58.9c0-0.4,0-0.8-0.1-1.2c0.1,0,0.2,0,0.3,0c0.1,0,0.2,0,0.3,0c0,0.4-0.1,0.8-0.1,1.2v0.7
		c0,0.4,0,0.8,0.1,1.2c-0.1,0-0.2,0-0.3,0c-0.1,0-0.2,0-0.3,0c0-0.4,0.1-0.8,0.1-1.2V58.9z M10.8,56.3c0.2,0,0.3,0.1,0.3,0.3
		c0,0.2-0.1,0.3-0.3,0.3c-0.2,0-0.3-0.1-0.3-0.3C10.5,56.5,10.6,56.3,10.8,56.3"/>
	<path class="st0" d="M14.6,59.2c0,0.9-0.4,1.5-0.9,1.5c-0.6,0-0.9-0.4-0.9-1.3c0-1,0.4-1.4,1-1.4C14.2,57.9,14.6,58.4,14.6,59.2
		 M15.1,59.2c0-0.8-0.4-1.5-1.3-1.5c-0.5,0-0.8,0.2-1.1,0.7h0c0-0.8,0-2,0.1-2.4c-0.1,0-0.2,0-0.3,0c-0.1,0-0.2,0-0.3,0
		c0,0.4,0.1,1.2,0.1,1.8V59c0,0.6,0,1.4-0.1,1.8h0.1c0.1-0.1,0.3-0.3,0.4-0.4c0.2,0.2,0.5,0.5,0.9,0.5
		C14.5,60.8,15.1,60.1,15.1,59.2"/>
	<path class="st0" d="M16.2,57.8c0-0.6,0-1.4-0.1-1.8c0.1,0,0.2,0,0.3,0c0.1,0,0.2,0,0.3,0c0,0.4-0.1,1.2-0.1,1.8V59
		c0,0.6,0,1.4,0.1,1.8c-0.1,0-0.2,0-0.3,0c-0.1,0-0.2,0-0.3,0c0-0.4,0.1-1.2,0.1-1.8V57.8z"/>
	<path class="st0" d="M19.2,57.9c0.7,0,0.8,0.6,0.8,1.1c-0.3,0-0.6,0-0.8,0c-0.3,0-0.6,0-0.8,0C18.4,58.5,18.6,57.9,19.2,57.9
		 M17.7,59.4c0,0.8,0.6,1.5,1.5,1.5c0.4,0,0.8-0.2,1.1-0.4l0-0.3l0,0c-0.2,0.3-0.6,0.5-1,0.5c-0.7,0-1.1-0.5-1.1-1.2
		c0-0.1,0-0.1,0-0.2c0.3,0,0.6,0,0.8,0c0.5,0,0.9,0,1.4,0c0-0.1,0-0.2,0-0.2c0-0.7-0.4-1.3-1.3-1.3C18.3,57.7,17.7,58.3,17.7,59.4"
		/>
	<path class="st0" d="M26.6,58c0-0.5,0-1.1-0.1-1.7c0.1,0,0.2,0,0.3,0c0.1,0,0.2,0,0.3,0c0,0.5-0.1,1.1-0.1,1.7v1.1
		c0,0.5,0,1.1,0.1,1.6c-0.1,0-0.2,0-0.3,0c-0.1,0-0.2,0-0.3,0c0-0.5,0.1-1.1,0.1-1.6v-0.6c-0.4,0-0.9,0-1.3,0c-0.4,0-0.9,0-1.3,0
		v0.6c0,0.5,0,1.1,0.1,1.6c-0.1,0-0.2,0-0.3,0c-0.1,0-0.2,0-0.3,0c0-0.5,0.1-1.1,0.1-1.6V58c0-0.5,0-1.1-0.1-1.7c0.1,0,0.2,0,0.3,0
		c0.1,0,0.2,0,0.3,0c0,0.5-0.1,1.1-0.1,1.7v0.2c0.4,0,0.9,0,1.3,0c0.4,0,0.9,0,1.3,0V58z"/>
	<path class="st0" d="M29.6,57.9c0.7,0,0.8,0.6,0.8,1.1c-0.3,0-0.6,0-0.8,0c-0.3,0-0.6,0-0.8,0C28.8,58.5,29,57.9,29.6,57.9
		 M28.2,59.4c0,0.8,0.6,1.5,1.5,1.5c0.4,0,0.8-0.2,1.1-0.4l0-0.3l0,0c-0.2,0.3-0.6,0.5-1,0.5c-0.7,0-1.1-0.5-1.1-1.2
		c0-0.1,0-0.1,0-0.2c0.3,0,0.6,0,0.8,0c0.5,0,0.9,0,1.4,0c0-0.1,0-0.2,0-0.2c0-0.7-0.4-1.3-1.3-1.3C28.7,57.7,28.2,58.3,28.2,59.4"
		/>
	<path class="st0" d="M33.4,60.1c-0.1,0.2-0.4,0.4-0.8,0.4c-0.3,0-0.6-0.2-0.6-0.6c0-0.7,0.9-0.6,1.3-0.8L33.4,60.1z M31.8,58.4
		L31.8,58.4c0.2-0.3,0.5-0.4,0.9-0.4c0.5,0,0.7,0.4,0.7,0.8c0,0.2,0,0.3-1,0.4c-0.6,0.1-0.9,0.4-0.9,0.9c0,0.5,0.4,0.8,0.8,0.8
		c0.4,0,0.7-0.2,1-0.5c0,0.2,0.2,0.4,0.4,0.4c0.2,0,0.3-0.1,0.4-0.1v-0.1c0,0-0.1,0-0.1,0c-0.2,0-0.2-0.3-0.2-0.5c0-0.5,0-1,0-1.5
		c0-0.6-0.4-0.9-1-0.9c-0.3,0-0.6,0.1-1,0.4V58.4z"/>
	<path class="st0" d="M35.3,57.8c0-0.6,0-1.4-0.1-1.8c0.1,0,0.2,0,0.3,0s0.2,0,0.3,0c0,0.4-0.1,1.2-0.1,1.8V59c0,0.6,0,1.4,0.1,1.8
		c-0.1,0-0.2,0-0.3,0s-0.2,0-0.3,0c0-0.4,0.1-1.2,0.1-1.8V57.8z"/>
	<path class="st0" d="M37.6,56.9L37.6,56.9c0,0.3,0,0.6,0,0.9c0.1,0,0.4,0,0.7,0c0,0,0,0.1,0,0.1c0,0,0,0.1,0,0.1
		c-0.2,0-0.5,0-0.7,0c0,0.1,0,1.1,0,1.6c0,0.5,0,1,0.5,1c0.1,0,0.2,0,0.3,0v0.2c-0.1,0.1-0.3,0.1-0.5,0.1c-0.5,0-0.8-0.3-0.8-0.8
		c0-0.5,0-1,0-2c-0.1,0-0.3,0-0.4,0c0-0.1,0-0.1,0-0.1c0,0,0-0.1,0-0.1c0.2,0,0.3,0,0.4,0c0-0.2,0-0.4,0-0.7L37.6,56.9z"/>
	<path class="st0" d="M39.1,57.8c0-0.6,0-1.4-0.1-1.8c0.1,0,0.2,0,0.3,0c0.1,0,0.2,0,0.3,0c0,0.4-0.1,1.2-0.1,1.8v0.5h0
		c0.2-0.4,0.6-0.6,1-0.6c0.5,0,1,0.2,1,1.1c0,0.4,0,0.7,0,1.2c0,0.3,0,0.5,0,0.8c-0.1,0-0.2,0-0.3,0c-0.1,0-0.2,0-0.3,0
		c0-0.5,0-0.9,0-1.4V59c0-0.6-0.3-1-0.7-1c-0.6,0-0.9,0.4-0.9,1c0,0.5,0,1.3,0.1,1.7c-0.1,0-0.2,0-0.3,0c-0.1,0-0.2,0-0.3,0
		c0-0.4,0.1-1.2,0.1-1.8V57.8z"/>
	<path class="st0" d="M46,56.5c-0.1-0.1-0.2-0.1-0.3-0.1c-0.4,0-0.5,0.3-0.5,0.6c0,0.2,0,0.5,0.1,0.7c0.2,0,0.4,0,0.7,0
		c0,0,0,0.1,0,0.1c0,0,0,0.1,0,0.1c-0.2,0-0.4,0-0.7,0c0,0.9,0,1.8,0,2.8c-0.1,0-0.2,0-0.3,0c-0.1,0-0.2,0-0.3,0
		c0.1-0.9,0.1-1.8,0.1-2.8c-0.2,0-0.3,0-0.5,0c0,0,0-0.1,0-0.1c0,0,0-0.1,0-0.1c0.2,0,0.3,0,0.5,0c0-0.5,0.2-1.2,0.6-1.5
		c0.2-0.2,0.4-0.3,0.6-0.3c0,0,0.1,0,0.1,0C46.1,56.1,46.1,56.3,46,56.5L46,56.5z"/>
	<path class="st0" d="M46.9,59.3c0-0.7,0.2-1.4,1-1.4s1,0.7,1,1.4s-0.2,1.4-1,1.4S46.9,60,46.9,59.3 M46.4,59.3
		c0,1.2,0.8,1.6,1.5,1.6s1.5-0.4,1.5-1.6s-0.8-1.6-1.5-1.6S46.4,58.1,46.4,59.3"/>
	<path class="st0" d="M51.8,58.3c0,0-0.2-0.1-0.3-0.1c-0.4,0-0.6,0.4-0.6,0.9c0,1.1,0,1.4,0,1.7c-0.1,0-0.2,0-0.3,0
		c-0.1,0-0.2,0-0.3,0c0-0.3,0-0.8,0-1.5v-0.2c0-0.3,0-0.8,0-1.3c0.1,0,0.2,0,0.3,0c0.1,0,0.2,0,0.3,0c0,0.3,0,0.5,0,0.6l0,0
		c0.2-0.5,0.5-0.7,0.8-0.7c0.1,0,0.1,0,0.2,0C51.8,57.8,51.8,58.1,51.8,58.3L51.8,58.3z"/>
	<path class="st0" d="M55.1,58c0-0.4,0-0.9,0-1.3c-0.4,0-1,0-1.4,0.1c0-0.1,0-0.1,0-0.2c0-0.1,0-0.1,0-0.2c0.5,0,1.1,0,1.6,0
		c0.5,0,1.1,0,1.6,0c0,0.1,0,0.1,0,0.2c0,0.1,0,0.1,0,0.2c-0.4,0-0.9-0.1-1.4-0.1c0,0.4,0,0.9,0,1.3v1.1c0,0.5,0,1.1,0.1,1.6
		c-0.1,0-0.2,0-0.3,0s-0.2,0-0.3,0c0-0.5,0.1-1.1,0.1-1.6V58z"/>
	<path class="st0" d="M57.5,59.3c0-0.7,0.2-1.4,1-1.4s1,0.7,1,1.4s-0.2,1.4-1,1.4S57.5,60,57.5,59.3 M56.9,59.3
		c0,1.2,0.8,1.6,1.5,1.6s1.5-0.4,1.5-1.6s-0.8-1.6-1.5-1.6S56.9,58.1,56.9,59.3"/>
	<path class="st0" d="M61.2,59.3c0-0.8,0.3-1.4,0.9-1.4c0.6,0,0.9,0.5,0.9,1.3c0,0.7-0.3,1.4-0.9,1.4C61.7,60.6,61.2,60.3,61.2,59.3
		 M63,60.8c0.1,0,0.2,0,0.2,0c0.1,0,0.2,0,0.2,0c0-0.5,0-0.9,0-1.5c0-1.1,0-2.8,0.1-3.3c-0.1,0-0.2,0-0.3,0c-0.1,0-0.2,0-0.3,0
		c0,0.5,0,1.5,0,2.4h0c-0.2-0.4-0.5-0.6-1-0.6c-0.7,0-1.4,0.5-1.4,1.6c0,1.1,0.6,1.6,1.3,1.6c0.6,0,0.9-0.4,1.1-0.7h0L63,60.8z"/>
	<path class="st0" d="M66.2,60.1c-0.1,0.2-0.4,0.4-0.8,0.4c-0.3,0-0.6-0.2-0.6-0.6c0-0.7,0.9-0.6,1.3-0.8L66.2,60.1z M64.7,58.4
		L64.7,58.4c0.2-0.3,0.5-0.4,0.9-0.4c0.5,0,0.7,0.4,0.7,0.8c0,0.2,0,0.3-1,0.4c-0.6,0.1-0.9,0.4-0.9,0.9c0,0.5,0.4,0.8,0.8,0.8
		c0.4,0,0.7-0.2,1-0.5c0,0.2,0.2,0.4,0.4,0.4c0.2,0,0.3-0.1,0.4-0.1v-0.1c0,0-0.1,0-0.1,0c-0.2,0-0.2-0.3-0.2-0.5c0-0.5,0-1,0-1.5
		c0-0.6-0.4-0.9-1-0.9c-0.3,0-0.6,0.1-1,0.4V58.4z"/>
	<path class="st0" d="M67.4,57.7c0.1,0,0.2,0,0.3,0c0.1,0,0.2,0,0.3,0c0.3,0.8,0.6,1.6,0.9,2.4c0.4-0.7,0.7-1.6,0.9-2.4
		c0.1,0,0.1,0,0.2,0c0.1,0,0.1,0,0.2,0c-0.2,0.5-1.8,3.9-2,4.7c-0.1,0-0.1,0-0.2,0c-0.1,0-0.1,0-0.2,0c0.3-0.6,0.6-1.1,0.9-1.7
		C68.4,60,67.6,58.1,67.4,57.7"/>
	<path class="st0" d="M75.3,57.2c0,0.3-0.2,0.7-0.6,1c-0.2-0.3-0.4-0.7-0.4-0.9c0-0.3,0.2-0.6,0.5-0.6
		C75.1,56.7,75.3,56.9,75.3,57.2 M73.8,57.4c0,0.3,0.2,0.6,0.4,1c-0.7,0.3-1.2,0.8-1.2,1.4c0,0.7,0.6,1.1,1.2,1.1
		c0.6,0,1-0.2,1.4-0.6c0.2,0.2,0.3,0.4,0.4,0.5c0.1,0,0.2,0,0.4,0c0.1,0,0.3,0,0.4,0L76,59.9c0.3-0.4,0.6-0.8,0.9-1.2
		c-0.1-0.1-0.2-0.1-0.2-0.3c-0.2,0.4-0.5,0.8-0.8,1.3c-0.4-0.4-0.7-0.9-1.1-1.4c0.4-0.2,0.9-0.6,0.9-1.1c0-0.5-0.4-0.7-0.8-0.7
		C74.2,56.5,73.8,56.9,73.8,57.4 M73.6,59.7c0-0.5,0.3-0.8,0.7-1.1c0.4,0.5,0.8,1,1.2,1.5c-0.3,0.3-0.6,0.5-1,0.5
		C74,60.6,73.6,60.1,73.6,59.7"/>
	<path class="st0" d="M80.3,58c0-0.4,0-0.9,0-1.3c-0.4,0-1,0-1.4,0.1c0-0.1,0-0.1,0-0.2c0-0.1,0-0.1,0-0.2c0.5,0,1.1,0,1.6,0
		c0.5,0,1.1,0,1.6,0c0,0.1,0,0.1,0,0.2c0,0.1,0,0.1,0,0.2c-0.4,0-0.9-0.1-1.4-0.1c0,0.4,0,0.9,0,1.3v1.1c0,0.5,0,1.1,0.1,1.6
		c-0.1,0-0.2,0-0.3,0c-0.1,0-0.2,0-0.3,0c0-0.5,0.1-1.1,0.1-1.6V58z"/>
	<path class="st0" d="M82.7,59.3c0-0.7,0.2-1.4,1-1.4c0.8,0,1,0.7,1,1.4s-0.2,1.4-1,1.4C82.9,60.6,82.7,60,82.7,59.3 M82.1,59.3
		c0,1.2,0.8,1.6,1.5,1.6s1.5-0.4,1.5-1.6s-0.8-1.6-1.5-1.6S82.1,58.1,82.1,59.3"/>
	<path class="st0" d="M86.1,58.9c0-0.4,0-0.8-0.1-1.2c0.1,0,0.2,0,0.3,0c0.1,0,0.2,0,0.3,0c0,0.2,0,0.3,0,0.5h0
		c0.2-0.4,0.5-0.6,0.9-0.6c0.4,0,0.8,0.3,0.9,0.6h0c0.2-0.4,0.6-0.6,1-0.6c0.6,0,1,0.3,1,1c0,0.3,0,0.7,0,1.4c0,0.2,0,0.4,0,0.7
		c-0.1,0-0.2,0-0.3,0c-0.1,0-0.2,0-0.3,0c0-0.2,0.1-0.9,0.1-2c0-0.4-0.2-0.8-0.7-0.8c-0.3,0-0.5,0.1-0.6,0.3
		c-0.1,0.2-0.2,0.3-0.2,1.5c0,0.4,0,0.6,0,1c-0.1,0-0.2,0-0.3,0c-0.1,0-0.2,0-0.3,0c0-0.5,0.1-1,0.1-1.4c0-0.8,0-0.8-0.1-1
		c-0.1-0.2-0.3-0.3-0.5-0.3c-0.5,0-0.8,0.4-0.8,1v0.5c0,0.4,0,0.8,0.1,1.2c-0.1,0-0.2,0-0.3,0c-0.1,0-0.2,0-0.3,0
		c0-0.4,0.1-0.8,0.1-1.2V58.9z"/>
	<path class="st0" d="M91.9,59.3c0-0.7,0.2-1.4,1-1.4c0.8,0,1,0.7,1,1.4s-0.2,1.4-1,1.4C92.1,60.6,91.9,60,91.9,59.3 M91.3,59.3
		c0,1.2,0.8,1.6,1.5,1.6c0.7,0,1.5-0.4,1.5-1.6s-0.8-1.6-1.5-1.6C92.1,57.7,91.3,58.1,91.3,59.3"/>
	<path class="st0" d="M96.7,58.3c0,0-0.2-0.1-0.3-0.1c-0.4,0-0.6,0.4-0.6,0.9c0,1.1,0,1.4,0,1.7c-0.1,0-0.2,0-0.3,0
		c-0.1,0-0.2,0-0.3,0c0-0.3,0-0.8,0-1.5v-0.2c0-0.3,0-0.8,0-1.3c0.1,0,0.2,0,0.3,0c0.1,0,0.2,0,0.3,0c0,0.3,0,0.5,0,0.6l0,0
		c0.2-0.5,0.5-0.7,0.8-0.7c0.1,0,0.1,0,0.2,0C96.8,57.8,96.8,58.1,96.7,58.3L96.7,58.3z"/>
	<path class="st0" d="M99,58.3c0,0-0.2-0.1-0.3-0.1c-0.4,0-0.6,0.4-0.6,0.9c0,1.1,0,1.4,0,1.7c-0.1,0-0.2,0-0.3,0
		c-0.1,0-0.2,0-0.3,0c0-0.3,0-0.8,0-1.5v-0.2c0-0.3,0-0.8,0-1.3c0.1,0,0.2,0,0.3,0c0.1,0,0.2,0,0.3,0c0,0.3,0,0.5,0,0.6l0,0
		c0.2-0.5,0.5-0.7,0.8-0.7c0.1,0,0.1,0,0.2,0C99.1,57.8,99.1,58.1,99,58.3L99,58.3z"/>
	<path class="st0" d="M100.2,59.3c0-0.7,0.2-1.4,1-1.4c0.8,0,1,0.7,1,1.4s-0.2,1.4-1,1.4C100.4,60.6,100.2,60,100.2,59.3 M99.6,59.3
		c0,1.2,0.8,1.6,1.5,1.6c0.7,0,1.5-0.4,1.5-1.6s-0.8-1.6-1.5-1.6C100.4,57.7,99.6,58.1,99.6,59.3"/>
	<path class="st0" d="M103.1,57.7c0.1,0,0.2,0,0.3,0c0.1,0,0.2,0,0.3,0c0.2,0.8,0.5,1.6,0.8,2.4c0.2-0.5,0.6-1.6,0.8-2.4
		c0.1,0,0.1,0,0.2,0c0.1,0,0.1,0,0.2,0c0.2,0.8,0.5,1.6,0.8,2.4c0.2-0.5,0.6-1.6,0.9-2.4c0.1,0,0.1,0,0.2,0c0.1,0,0.1,0,0.2,0
		c-0.5,1-0.9,2-1.3,3c-0.1,0-0.1,0-0.2,0c-0.1,0-0.1,0-0.2,0c-0.2-0.8-0.5-1.5-0.8-2.4c-0.2,0.5-0.6,1.6-0.8,2.4c-0.1,0-0.1,0-0.2,0
		s-0.1,0-0.2,0C104.1,60.1,103.6,58.8,103.1,57.7"/>
</g>
</svg>
